UVM_seminario/transcript
# Reading pref.tcl
# //  Questa Sim-64
# //  Version 10.7c linux_x86_64 Aug 17 2018
# //
# //  Copyright 1991-2018 Mentor Graphics Corporation
# //  All Rights Reserved.
# //
# //  QuestaSim and its associated documentation contain trade
# //  secrets and commercial or financial information that are the property of
# //  Mentor Graphics Corporation and are privileged, confidential,
# //  and exempt from disclosure under the Freedom of Information Act,
# //  5 U.S.C. Section 552. Furthermore, this information
# //  is prohibited from disclosure under the Trade Secrets Act,
# //  18 U.S.C. Section 1905.
# //
# Loading project UVM_test
pwd
# /home/balbi/UVM_seminario
vsim -vopt work.tb
# vsim -vopt work.tb 
# Start time: 00:15:31 on Jan 11,2023
# ** Note: (vsim-8009) Loading existing optimized design _opt
# Loading sv_std.std
# Loading mtiUvm.uvm_pkg
# Loading work.tb_sv_unit(fast)
# Loading work.tb(fast)
# Loading work.det_1011(fast)
# Loading mtiUvm.questa_uvm_pkg(fast)
# Loading work.des_if(fast)
# Loading /home/QuestaSim/questasim/uvm-1.1d/linux_x86_64/uvm_dpi.so
run -all
# ----------------------------------------------------------------
# UVM-1.1d
# (C) 2007-2013 Mentor Graphics Corporation
# (C) 2007-2013 Cadence Design Systems, Inc.
# (C) 2006-2013 Synopsys, Inc.
# (C) 2011-2013 Cypress Semiconductor Corp.
# ----------------------------------------------------------------
# 
#   ***********       IMPORTANT RELEASE NOTES         ************
# 
#   You are using a version of the UVM library that has been compiled
#   with `UVM_NO_DEPRECATED undefined.
#   See http://www.eda.org/svdb/view.php?id=3313 for more details.
# 
#   You are using a version of the UVM library that has been compiled
#   with `UVM_OBJECT_MUST_HAVE_CONSTRUCTOR undefined.
#   See http://www.eda.org/svdb/view.php?id=3770 for more details.
# 
#       (Specify +UVM_NO_RELNOTES to turn off this notice)
# 
# UVM_INFO verilog_src/questa_uvm_pkg-1.2/src/questa_uvm_pkg.sv(215) @ 0: reporter [Questa UVM] QUESTA_UVM-1.2.3
# UVM_INFO verilog_src/questa_uvm_pkg-1.2/src/questa_uvm_pkg.sv(216) @ 0: reporter [Questa UVM]  questa_uvm::init(+struct)
# UVM_WARNING @ 0: reporter [BDTYP] Cannot create a component of type 'test_1011' because it is not registered with the factory.
# UVM_FATAL @ 0: reporter [INVTST] Requested test from call to run_test(test_1011) not found.
# 
# --- UVM Report Summary ---
# 
# ** Report counts by severity
# UVM_INFO :    2
# UVM_WARNING :    1
# UVM_ERROR :    0
# UVM_FATAL :    1
# ** Report counts by id
# [BDTYP]     1
# [INVTST]     1
# [Questa UVM]     2
# ** Note: $finish    : /home/QuestaSim/questasim/linux_x86_64/../verilog_src/uvm-1.1d/src/base/uvm_report_object.svh(292)
#    Time: 0 ns  Iteration: 0  Instance: /tb
# 1
# Break in Function uvm_pkg/uvm_report_object::die at /home/QuestaSim/questasim/linux_x86_64/../verilog_src/uvm-1.1d/src/base/uvm_report_object.svh line 292
vsim -vopt work.tb +UVM_TESTNAME=test_1011
# End time: 00:17:54 on Jan 11,2023, Elapsed time: 0:02:23
# Errors: 0, Warnings: 0
# vsim -vopt work.tb "+UVM_TESTNAME=test_1011" 
# Start time: 00:17:54 on Jan 11,2023
# ** Note: (vsim-8009) Loading existing optimized design _opt
# Loading sv_std.std
# Loading mtiUvm.uvm_pkg
# Loading work.tb_sv_unit(fast)
# Loading work.tb(fast)
# Loading work.det_1011(fast)
# Loading mtiUvm.questa_uvm_pkg(fast)
# Loading work.des_if(fast)
# Loading /home/QuestaSim/questasim/uvm-1.1d/linux_x86_64/uvm_dpi.so
run
# ----------------------------------------------------------------
# UVM-1.1d
# (C) 2007-2013 Mentor Graphics Corporation
# (C) 2007-2013 Cadence Design Systems, Inc.
# (C) 2006-2013 Synopsys, Inc.
# (C) 2011-2013 Cypress Semiconductor Corp.
# ----------------------------------------------------------------
# 
#   ***********       IMPORTANT RELEASE NOTES         ************
# 
#   You are using a version of the UVM library that has been compiled
#   with `UVM_NO_DEPRECATED undefined.
#   See http://www.eda.org/svdb/view.php?id=3313 for more details.
# 
#   You are using a version of the UVM library that has been compiled
#   with `UVM_OBJECT_MUST_HAVE_CONSTRUCTOR undefined.
#   See http://www.eda.org/svdb/view.php?id=3770 for more details.
# 
#       (Specify +UVM_NO_RELNOTES to turn off this notice)
# 
# UVM_INFO verilog_src/questa_uvm_pkg-1.2/src/questa_uvm_pkg.sv(215) @ 0: reporter [Questa UVM] QUESTA_UVM-1.2.3
# UVM_INFO verilog_src/questa_uvm_pkg-1.2/src/questa_uvm_pkg.sv(216) @ 0: reporter [Questa UVM]  questa_uvm::init(+struct)
# UVM_WARNING @ 0: reporter [BDTYP] Cannot create a component of type 'test_1011' because it is not registered with the factory.
# UVM_FATAL @ 0: reporter [INVTST] Requested test from command line +UVM_TESTNAME=test_1011 not found.
# 
# --- UVM Report Summary ---
# 
# ** Report counts by severity
# UVM_INFO :    2
# UVM_WARNING :    1
# UVM_ERROR :    0
# UVM_FATAL :    1
# ** Report counts by id
# [BDTYP]     1
# [INVTST]     1
# [Questa UVM]     2
# ** Note: $finish    : /home/QuestaSim/questasim/linux_x86_64/../verilog_src/uvm-1.1d/src/base/uvm_report_object.svh(292)
#    Time: 0 ns  Iteration: 0  Instance: /tb
# 1
# Break in Function uvm_pkg/uvm_report_object::die at /home/QuestaSim/questasim/linux_x86_64/../verilog_src/uvm-1.1d/src/base/uvm_report_object.svh line 292
vsim work.tb +UVM_TESTNAME=test_1011
# End time: 00:23:56 on Jan 11,2023, Elapsed time: 0:06:02
# Errors: 0, Warnings: 0
# vsim work.tb "+UVM_TESTNAME=test_1011" 
# Start time: 00:23:56 on Jan 11,2023
# ** Note: (vsim-8009) Loading existing optimized design _opt
# Loading sv_std.std
# Loading mtiUvm.uvm_pkg
# Loading work.tb_sv_unit(fast)
# Loading work.tb(fast)
# Loading work.det_1011(fast)
# Loading mtiUvm.questa_uvm_pkg(fast)
# Loading work.des_if(fast)
# Loading /home/QuestaSim/questasim/uvm-1.1d/linux_x86_64/uvm_dpi.so
run -all
# ----------------------------------------------------------------
# UVM-1.1d
# (C) 2007-2013 Mentor Graphics Corporation
# (C) 2007-2013 Cadence Design Systems, Inc.
# (C) 2006-2013 Synopsys, Inc.
# (C) 2011-2013 Cypress Semiconductor Corp.
# ----------------------------------------------------------------
# 
#   ***********       IMPORTANT RELEASE NOTES         ************
# 
#   You are using a version of the UVM library that has been compiled
#   with `UVM_NO_DEPRECATED undefined.
#   See http://www.eda.org/svdb/view.php?id=3313 for more details.
# 
#   You are using a version of the UVM library that has been compiled
#   with `UVM_OBJECT_MUST_HAVE_CONSTRUCTOR undefined.
#   See http://www.eda.org/svdb/view.php?id=3770 for more details.
# 
#       (Specify +UVM_NO_RELNOTES to turn off this notice)
# 
# UVM_INFO verilog_src/questa_uvm_pkg-1.2/src/questa_uvm_pkg.sv(215) @ 0: reporter [Questa UVM] QUESTA_UVM-1.2.3
# UVM_INFO verilog_src/questa_uvm_pkg-1.2/src/questa_uvm_pkg.sv(216) @ 0: reporter [Questa UVM]  questa_uvm::init(+struct)
# UVM_WARNING @ 0: reporter [BDTYP] Cannot create a component of type 'test_1011' because it is not registered with the factory.
# UVM_FATAL @ 0: reporter [INVTST] Requested test from command line +UVM_TESTNAME=test_1011 not found.
# 
# --- UVM Report Summary ---
# 
# ** Report counts by severity
# UVM_INFO :    2
# UVM_WARNING :    1
# UVM_ERROR :    0
# UVM_FATAL :    1
# ** Report counts by id
# [BDTYP]     1
# [INVTST]     1
# [Questa UVM]     2
# ** Note: $finish    : /home/QuestaSim/questasim/linux_x86_64/../verilog_src/uvm-1.1d/src/base/uvm_report_object.svh(292)
#    Time: 0 ns  Iteration: 0  Instance: /tb
# 1
# Break in Function uvm_pkg/uvm_report_object::die at /home/QuestaSim/questasim/linux_x86_64/../verilog_src/uvm-1.1d/src/base/uvm_report_object.svh line 292
# Compile of des_if.sv was successful.
# Compile of tb.sv was successful.
# Compile of Item.sv was successful.
# Compile of scoreboard.sv was successful.
# Compile of agent.sv was successful.
# Compile of driver.sv was successful.
# Compile of gen_item_seq.sv was successful.
# Compile of base_test.sv was successful.
# Compile of env.sv was successful.
# Compile of monitor.sv was successful.
# Compile of test_1011.sv was successful.
# Compile of my_package.svh was successful.
# Compile of my_macros.svh was successful.
# Compile of det_1011_v0.v was successful.
vsim work.tb +UVM_TESTNAME=test_1011
# End time: 00:26:42 on Jan 11,2023, Elapsed time: 0:02:46
# Errors: 0, Warnings: 0
# vsim work.tb "+UVM_TESTNAME=test_1011" 
# Start time: 00:26:42 on Jan 11,2023
# ** Note: (vsim-3813) Design is being optimized due to module recompilation...
# ** Warning: gen_item_seq.sv(22): (vopt-2240) Treating stand-alone use of function 'randomize' as an implicit VOID cast.
# ** Warning: scoreboard.sv(38): (vopt-2250) Function "write" has no return value assignment.
# ** Warning: test_1011.sv(20): (vopt-2239) Treating stand-alone use of presumed external function as an implicit VOID cast.
# Loading sv_std.std
# Loading work.des_if(fast)
# Loading mtiUvm.uvm_pkg
# Loading work.my_package(fast)
# Loading work.tb_sv_unit(fast)
# Loading work.tb(fast)
# Loading work.det_1011(fast)
# Loading mtiUvm.questa_uvm_pkg(fast)
# ** Warning: (vsim-3764) Stand-alone call to function 'write' treated as implicit void cast.
#    Time: 0 ns  Iteration: 0  Region: /uvm_pkg::uvm_analysis_imp #(my_package::Item, my_package::scoreboard) File: /home/QuestaSim/questasim/linux_x86_64/../verilog_src/uvm-1.1d/src/tlm1/uvm_analysis_port.svh Line: 114
# Loading /home/QuestaSim/questasim/uvm-1.1d/linux_x86_64/uvm_dpi.so
add wave -position insertpoint sim:/tb/_if/*
add wave -position insertpoint sim:/tb/u0/*
# (vish-4014) No objects found matching '/tb/u0/*'.
run -all
# ----------------------------------------------------------------
# UVM-1.1d
# (C) 2007-2013 Mentor Graphics Corporation
# (C) 2007-2013 Cadence Design Systems, Inc.
# (C) 2006-2013 Synopsys, Inc.
# (C) 2011-2013 Cypress Semiconductor Corp.
# ----------------------------------------------------------------
# 
#   ***********       IMPORTANT RELEASE NOTES         ************
# 
#   You are using a version of the UVM library that has been compiled
#   with `UVM_NO_DEPRECATED undefined.
#   See http://www.eda.org/svdb/view.php?id=3313 for more details.
# 
#   You are using a version of the UVM library that has been compiled
#   with `UVM_OBJECT_MUST_HAVE_CONSTRUCTOR undefined.
#   See http://www.eda.org/svdb/view.php?id=3770 for more details.
# 
#       (Specify +UVM_NO_RELNOTES to turn off this notice)
# 
# UVM_INFO verilog_src/questa_uvm_pkg-1.2/src/questa_uvm_pkg.sv(215) @ 0: reporter [Questa UVM] QUESTA_UVM-1.2.3
# UVM_INFO verilog_src/questa_uvm_pkg-1.2/src/questa_uvm_pkg.sv(216) @ 0: reporter [Questa UVM]  questa_uvm::init(+struct)
# UVM_INFO @ 0: reporter [RNTST] Running test test_1011...
# UVM_INFO scoreboard.sv(41) @ 90: uvm_test_top.e0.sb0 [SCBD] in=0 out=0 ref=0b1011 act=0b0
# UVM_INFO scoreboard.sv(41) @ 110: uvm_test_top.e0.sb0 [SCBD] in=0 out=0 ref=0b1011 act=0b0
# UVM_INFO scoreboard.sv(41) @ 130: uvm_test_top.e0.sb0 [SCBD] in=0 out=0 ref=0b1011 act=0b0
# UVM_INFO scoreboard.sv(41) @ 150: uvm_test_top.e0.sb0 [SCBD] in=0 out=0 ref=0b1011 act=0b0
# UVM_INFO scoreboard.sv(41) @ 170: uvm_test_top.e0.sb0 [SCBD] in=0 out=0 ref=0b1011 act=0b0
# UVM_INFO scoreboard.sv(41) @ 190: uvm_test_top.e0.sb0 [SCBD] in=0 out=0 ref=0b1011 act=0b0
# UVM_INFO scoreboard.sv(41) @ 210: uvm_test_top.e0.sb0 [SCBD] in=0 out=0 ref=0b1011 act=0b0
# UVM_INFO scoreboard.sv(41) @ 230: uvm_test_top.e0.sb0 [SCBD] in=0 out=0 ref=0b1011 act=0b0
# UVM_INFO scoreboard.sv(41) @ 250: uvm_test_top.e0.sb0 [SCBD] in=0 out=0 ref=0b1011 act=0b0
# UVM_INFO scoreboard.sv(41) @ 270: uvm_test_top.e0.sb0 [SCBD] in=0 out=0 ref=0b1011 act=0b0
# UVM_INFO scoreboard.sv(41) @ 290: uvm_test_top.e0.sb0 [SCBD] in=0 out=0 ref=0b1011 act=0b0
# UVM_INFO scoreboard.sv(41) @ 310: uvm_test_top.e0.sb0 [SCBD] in=1 out=0 ref=0b1011 act=0b1
# UVM_INFO scoreboard.sv(41) @ 330: uvm_test_top.e0.sb0 [SCBD] in=0 out=0 ref=0b1011 act=0b10
# UVM_INFO scoreboard.sv(41) @ 350: uvm_test_top.e0.sb0 [SCBD] in=1 out=0 ref=0b1011 act=0b101
# UVM_INFO scoreboard.sv(41) @ 370: uvm_test_top.e0.sb0 [SCBD] in=1 out=0 ref=0b1011 act=0b1011
# UVM_INFO scoreboard.sv(59) @ 370: uvm_test_top.e0.sb0 [SCBD] Pattern found to match, next out should be 1
# UVM_INFO scoreboard.sv(41) @ 390: uvm_test_top.e0.sb0 [SCBD] in=1 out=1 ref=0b1011 act=0b111
# UVM_INFO scoreboard.sv(41) @ 410: uvm_test_top.e0.sb0 [SCBD] in=1 out=0 ref=0b1011 act=0b1111
# UVM_INFO scoreboard.sv(41) @ 430: uvm_test_top.e0.sb0 [SCBD] in=1 out=0 ref=0b1011 act=0b1111
# UVM_INFO scoreboard.sv(41) @ 450: uvm_test_top.e0.sb0 [SCBD] in=1 out=0 ref=0b1011 act=0b1111
# UVM_INFO scoreboard.sv(41) @ 470: uvm_test_top.e0.sb0 [SCBD] in=1 out=0 ref=0b1011 act=0b1111
# UVM_INFO scoreboard.sv(41) @ 490: uvm_test_top.e0.sb0 [SCBD] in=0 out=0 ref=0b1011 act=0b1110
# UVM_INFO scoreboard.sv(41) @ 510: uvm_test_top.e0.sb0 [SCBD] in=1 out=0 ref=0b1011 act=0b1101
# UVM_INFO scoreboard.sv(41) @ 530: uvm_test_top.e0.sb0 [SCBD] in=0 out=0 ref=0b1011 act=0b1010
# UVM_INFO scoreboard.sv(41) @ 550: uvm_test_top.e0.sb0 [SCBD] in=1 out=0 ref=0b1011 act=0b101
# UVM_INFO scoreboard.sv(41) @ 570: uvm_test_top.e0.sb0 [SCBD] in=1 out=0 ref=0b1011 act=0b1011
# UVM_INFO scoreboard.sv(59) @ 570: uvm_test_top.e0.sb0 [SCBD] Pattern found to match, next out should be 1
# UVM_INFO scoreboard.sv(41) @ 590: uvm_test_top.e0.sb0 [SCBD] in=1 out=1 ref=0b1011 act=0b111
# UVM_INFO scoreboard.sv(41) @ 610: uvm_test_top.e0.sb0 [SCBD] in=0 out=0 ref=0b1011 act=0b1110
# UVM_INFO scoreboard.sv(41) @ 630: uvm_test_top.e0.sb0 [SCBD] in=0 out=0 ref=0b1011 act=0b1100
# UVM_INFO scoreboard.sv(41) @ 650: uvm_test_top.e0.sb0 [SCBD] in=0 out=0 ref=0b1011 act=0b1000
# UVM_INFO scoreboard.sv(41) @ 670: uvm_test_top.e0.sb0 [SCBD] in=0 out=0 ref=0b1011 act=0b0
# UVM_INFO scoreboard.sv(41) @ 690: uvm_test_top.e0.sb0 [SCBD] in=1 out=0 ref=0b1011 act=0b1
# UVM_INFO scoreboard.sv(41) @ 710: uvm_test_top.e0.sb0 [SCBD] in=1 out=0 ref=0b1011 act=0b11
# UVM_INFO scoreboard.sv(41) @ 730: uvm_test_top.e0.sb0 [SCBD] in=1 out=0 ref=0b1011 act=0b111
# UVM_INFO scoreboard.sv(41) @ 750: uvm_test_top.e0.sb0 [SCBD] in=1 out=0 ref=0b1011 act=0b1111
# UVM_INFO scoreboard.sv(41) @ 770: uvm_test_top.e0.sb0 [SCBD] in=1 out=0 ref=0b1011 act=0b1111
# UVM_INFO scoreboard.sv(41) @ 790: uvm_test_top.e0.sb0 [SCBD] in=1 out=0 ref=0b1011 act=0b1111
# UVM_INFO scoreboard.sv(41) @ 810: uvm_test_top.e0.sb0 [SCBD] in=1 out=0 ref=0b1011 act=0b1111
# UVM_INFO scoreboard.sv(41) @ 830: uvm_test_top.e0.sb0 [SCBD] in=1 out=0 ref=0b1011 act=0b1111
# UVM_INFO scoreboard.sv(41) @ 850: uvm_test_top.e0.sb0 [SCBD] in=1 out=0 ref=0b1011 act=0b1111
# UVM_INFO scoreboard.sv(41) @ 870: uvm_test_top.e0.sb0 [SCBD] in=0 out=0 ref=0b1011 act=0b1110
# UVM_INFO scoreboard.sv(41) @ 890: uvm_test_top.e0.sb0 [SCBD] in=1 out=0 ref=0b1011 act=0b1101
# UVM_INFO scoreboard.sv(41) @ 910: uvm_test_top.e0.sb0 [SCBD] in=1 out=0 ref=0b1011 act=0b1011
# UVM_INFO scoreboard.sv(59) @ 910: uvm_test_top.e0.sb0 [SCBD] Pattern found to match, next out should be 1
# UVM_INFO scoreboard.sv(41) @ 930: uvm_test_top.e0.sb0 [SCBD] in=1 out=1 ref=0b1011 act=0b111
# UVM_INFO scoreboard.sv(41) @ 950: uvm_test_top.e0.sb0 [SCBD] in=1 out=0 ref=0b1011 act=0b1111
# UVM_INFO scoreboard.sv(41) @ 970: uvm_test_top.e0.sb0 [SCBD] in=1 out=0 ref=0b1011 act=0b1111
# UVM_INFO scoreboard.sv(41) @ 990: uvm_test_top.e0.sb0 [SCBD] in=1 out=0 ref=0b1011 act=0b1111
# UVM_INFO scoreboard.sv(41) @ 1010: uvm_test_top.e0.sb0 [SCBD] in=1 out=0 ref=0b1011 act=0b1111
# UVM_INFO scoreboard.sv(41) @ 1030: uvm_test_top.e0.sb0 [SCBD] in=0 out=0 ref=0b1011 act=0b1110
# UVM_INFO scoreboard.sv(41) @ 1050: uvm_test_top.e0.sb0 [SCBD] in=1 out=0 ref=0b1011 act=0b1101
# UVM_INFO scoreboard.sv(41) @ 1070: uvm_test_top.e0.sb0 [SCBD] in=0 out=0 ref=0b1011 act=0b1010
# UVM_INFO scoreboard.sv(41) @ 1090: uvm_test_top.e0.sb0 [SCBD] in=0 out=0 ref=0b1011 act=0b100
# UVM_INFO scoreboard.sv(41) @ 1110: uvm_test_top.e0.sb0 [SCBD] in=1 out=0 ref=0b1011 act=0b1001
# UVM_INFO scoreboard.sv(41) @ 1130: uvm_test_top.e0.sb0 [SCBD] in=1 out=0 ref=0b1011 act=0b11
# UVM_INFO scoreboard.sv(41) @ 1150: uvm_test_top.e0.sb0 [SCBD] in=1 out=0 ref=0b1011 act=0b111
# UVM_INFO scoreboard.sv(41) @ 1170: uvm_test_top.e0.sb0 [SCBD] in=1 out=0 ref=0b1011 act=0b1111
# UVM_INFO scoreboard.sv(41) @ 1190: uvm_test_top.e0.sb0 [SCBD] in=1 out=0 ref=0b1011 act=0b1111
# UVM_INFO scoreboard.sv(41) @ 1210: uvm_test_top.e0.sb0 [SCBD] in=1 out=0 ref=0b1011 act=0b1111
# UVM_INFO scoreboard.sv(41) @ 1230: uvm_test_top.e0.sb0 [SCBD] in=1 out=0 ref=0b1011 act=0b1111
# UVM_INFO scoreboard.sv(41) @ 1250: uvm_test_top.e0.sb0 [SCBD] in=0 out=0 ref=0b1011 act=0b1110
# UVM_INFO scoreboard.sv(41) @ 1270: uvm_test_top.e0.sb0 [SCBD] in=1 out=0 ref=0b1011 act=0b1101
# UVM_INFO scoreboard.sv(41) @ 1290: uvm_test_top.e0.sb0 [SCBD] in=1 out=0 ref=0b1011 act=0b1011
# UVM_INFO scoreboard.sv(59) @ 1290: uvm_test_top.e0.sb0 [SCBD] Pattern found to match, next out should be 1
# UVM_INFO scoreboard.sv(41) @ 1310: uvm_test_top.e0.sb0 [SCBD] in=1 out=1 ref=0b1011 act=0b111
# UVM_INFO scoreboard.sv(41) @ 1330: uvm_test_top.e0.sb0 [SCBD] in=1 out=0 ref=0b1011 act=0b1111
# UVM_INFO scoreboard.sv(41) @ 1350: uvm_test_top.e0.sb0 [SCBD] in=1 out=0 ref=0b1011 act=0b1111
# UVM_INFO scoreboard.sv(41) @ 1370: uvm_test_top.e0.sb0 [SCBD] in=1 out=0 ref=0b1011 act=0b1111
# UVM_INFO scoreboard.sv(41) @ 1390: uvm_test_top.e0.sb0 [SCBD] in=1 out=0 ref=0b1011 act=0b1111
# UVM_INFO scoreboard.sv(41) @ 1410: uvm_test_top.e0.sb0 [SCBD] in=1 out=0 ref=0b1011 act=0b1111
# UVM_INFO scoreboard.sv(41) @ 1430: uvm_test_top.e0.sb0 [SCBD] in=1 out=0 ref=0b1011 act=0b1111
# UVM_INFO scoreboard.sv(41) @ 1450: uvm_test_top.e0.sb0 [SCBD] in=1 out=0 ref=0b1011 act=0b1111
# UVM_INFO scoreboard.sv(41) @ 1470: uvm_test_top.e0.sb0 [SCBD] in=1 out=0 ref=0b1011 act=0b1111
# UVM_INFO scoreboard.sv(41) @ 1490: uvm_test_top.e0.sb0 [SCBD] in=1 out=0 ref=0b1011 act=0b1111
# UVM_INFO scoreboard.sv(41) @ 1510: uvm_test_top.e0.sb0 [SCBD] in=1 out=0 ref=0b1011 act=0b1111
# UVM_INFO scoreboard.sv(41) @ 1530: uvm_test_top.e0.sb0 [SCBD] in=1 out=0 ref=0b1011 act=0b1111
# UVM_INFO scoreboard.sv(41) @ 1550: uvm_test_top.e0.sb0 [SCBD] in=1 out=0 ref=0b1011 act=0b1111
# UVM_INFO scoreboard.sv(41) @ 1570: uvm_test_top.e0.sb0 [SCBD] in=0 out=0 ref=0b1011 act=0b1110
# UVM_INFO scoreboard.sv(41) @ 1590: uvm_test_top.e0.sb0 [SCBD] in=1 out=0 ref=0b1011 act=0b1101
# UVM_INFO scoreboard.sv(41) @ 1610: uvm_test_top.e0.sb0 [SCBD] in=1 out=0 ref=0b1011 act=0b1011
# UVM_INFO scoreboard.sv(59) @ 1610: uvm_test_top.e0.sb0 [SCBD] Pattern found to match, next out should be 1
# UVM_INFO scoreboard.sv(41) @ 1630: uvm_test_top.e0.sb0 [SCBD] in=1 out=0 ref=0b1011 act=0b111
# UVM_ERROR scoreboard.sv(48) @ 1630: uvm_test_top.e0.sb0 [SCBD] ERROR ! out=0 exp=1
# UVM_INFO scoreboard.sv(41) @ 1650: uvm_test_top.e0.sb0 [SCBD] in=1 out=0 ref=0b1011 act=0b1111
# UVM_INFO scoreboard.sv(41) @ 1670: uvm_test_top.e0.sb0 [SCBD] in=0 out=0 ref=0b1011 act=0b1110
# UVM_INFO scoreboard.sv(41) @ 1690: uvm_test_top.e0.sb0 [SCBD] in=0 out=0 ref=0b1011 act=0b1100
# UVM_INFO scoreboard.sv(41) @ 1710: uvm_test_top.e0.sb0 [SCBD] in=0 out=0 ref=0b1011 act=0b1000
# UVM_INFO scoreboard.sv(41) @ 1730: uvm_test_top.e0.sb0 [SCBD] in=1 out=0 ref=0b1011 act=0b1
# UVM_INFO scoreboard.sv(41) @ 1750: uvm_test_top.e0.sb0 [SCBD] in=1 out=0 ref=0b1011 act=0b11
# UVM_INFO scoreboard.sv(41) @ 1770: uvm_test_top.e0.sb0 [SCBD] in=0 out=0 ref=0b1011 act=0b110
# UVM_INFO scoreboard.sv(41) @ 1790: uvm_test_top.e0.sb0 [SCBD] in=1 out=0 ref=0b1011 act=0b1101
# UVM_INFO scoreboard.sv(41) @ 1810: uvm_test_top.e0.sb0 [SCBD] in=1 out=0 ref=0b1011 act=0b1011
# UVM_INFO scoreboard.sv(59) @ 1810: uvm_test_top.e0.sb0 [SCBD] Pattern found to match, next out should be 1
# UVM_INFO scoreboard.sv(41) @ 1830: uvm_test_top.e0.sb0 [SCBD] in=1 out=0 ref=0b1011 act=0b111
# UVM_ERROR scoreboard.sv(48) @ 1830: uvm_test_top.e0.sb0 [SCBD] ERROR ! out=0 exp=1
# UVM_INFO scoreboard.sv(41) @ 1850: uvm_test_top.e0.sb0 [SCBD] in=1 out=0 ref=0b1011 act=0b1111
# UVM_INFO scoreboard.sv(41) @ 1870: uvm_test_top.e0.sb0 [SCBD] in=1 out=0 ref=0b1011 act=0b1111
# UVM_INFO scoreboard.sv(41) @ 1890: uvm_test_top.e0.sb0 [SCBD] in=1 out=0 ref=0b1011 act=0b1111
# UVM_INFO scoreboard.sv(41) @ 1910: uvm_test_top.e0.sb0 [SCBD] in=0 out=0 ref=0b1011 act=0b1110
# UVM_INFO scoreboard.sv(41) @ 1930: uvm_test_top.e0.sb0 [SCBD] in=1 out=0 ref=0b1011 act=0b1101
# UVM_INFO scoreboard.sv(41) @ 1950: uvm_test_top.e0.sb0 [SCBD] in=1 out=0 ref=0b1011 act=0b1011
# UVM_INFO scoreboard.sv(59) @ 1950: uvm_test_top.e0.sb0 [SCBD] Pattern found to match, next out should be 1
# UVM_INFO scoreboard.sv(41) @ 1970: uvm_test_top.e0.sb0 [SCBD] in=1 out=0 ref=0b1011 act=0b111
# UVM_ERROR scoreboard.sv(48) @ 1970: uvm_test_top.e0.sb0 [SCBD] ERROR ! out=0 exp=1
# UVM_INFO scoreboard.sv(41) @ 1990: uvm_test_top.e0.sb0 [SCBD] in=1 out=0 ref=0b1011 act=0b1111
# UVM_INFO scoreboard.sv(41) @ 2010: uvm_test_top.e0.sb0 [SCBD] in=1 out=0 ref=0b1011 act=0b1111
# UVM_INFO scoreboard.sv(41) @ 2030: uvm_test_top.e0.sb0 [SCBD] in=1 out=0 ref=0b1011 act=0b1111
# UVM_INFO scoreboard.sv(41) @ 2050: uvm_test_top.e0.sb0 [SCBD] in=1 out=0 ref=0b1011 act=0b1111
# UVM_INFO scoreboard.sv(41) @ 2070: uvm_test_top.e0.sb0 [SCBD] in=1 out=0 ref=0b1011 act=0b1111
# UVM_INFO scoreboard.sv(41) @ 2090: uvm_test_top.e0.sb0 [SCBD] in=1 out=0 ref=0b1011 act=0b1111
# UVM_INFO scoreboard.sv(41) @ 2110: uvm_test_top.e0.sb0 [SCBD] in=0 out=0 ref=0b1011 act=0b1110
# UVM_INFO scoreboard.sv(41) @ 2130: uvm_test_top.e0.sb0 [SCBD] in=1 out=0 ref=0b1011 act=0b1101
# UVM_INFO scoreboard.sv(41) @ 2150: uvm_test_top.e0.sb0 [SCBD] in=1 out=0 ref=0b1011 act=0b1011
# UVM_INFO scoreboard.sv(59) @ 2150: uvm_test_top.e0.sb0 [SCBD] Pattern found to match, next out should be 1
# UVM_INFO scoreboard.sv(41) @ 2170: uvm_test_top.e0.sb0 [SCBD] in=1 out=1 ref=0b1011 act=0b111
# UVM_INFO scoreboard.sv(41) @ 2190: uvm_test_top.e0.sb0 [SCBD] in=1 out=0 ref=0b1011 act=0b1111
# UVM_INFO scoreboard.sv(41) @ 2210: uvm_test_top.e0.sb0 [SCBD] in=1 out=0 ref=0b1011 act=0b1111
# UVM_INFO scoreboard.sv(41) @ 2230: uvm_test_top.e0.sb0 [SCBD] in=1 out=0 ref=0b1011 act=0b1111
# UVM_INFO scoreboard.sv(41) @ 2250: uvm_test_top.e0.sb0 [SCBD] in=0 out=0 ref=0b1011 act=0b1110
# UVM_INFO scoreboard.sv(41) @ 2270: uvm_test_top.e0.sb0 [SCBD] in=1 out=0 ref=0b1011 act=0b1101
# UVM_INFO scoreboard.sv(41) @ 2290: uvm_test_top.e0.sb0 [SCBD] in=1 out=0 ref=0b1011 act=0b1011
# UVM_INFO scoreboard.sv(59) @ 2290: uvm_test_top.e0.sb0 [SCBD] Pattern found to match, next out should be 1
# UVM_INFO scoreboard.sv(41) @ 2310: uvm_test_top.e0.sb0 [SCBD] in=1 out=1 ref=0b1011 act=0b111
# UVM_INFO scoreboard.sv(41) @ 2330: uvm_test_top.e0.sb0 [SCBD] in=1 out=0 ref=0b1011 act=0b1111
# UVM_INFO scoreboard.sv(41) @ 2350: uvm_test_top.e0.sb0 [SCBD] in=1 out=0 ref=0b1011 act=0b1111
# UVM_INFO scoreboard.sv(41) @ 2370: uvm_test_top.e0.sb0 [SCBD] in=1 out=0 ref=0b1011 act=0b1111
# UVM_INFO scoreboard.sv(41) @ 2390: uvm_test_top.e0.sb0 [SCBD] in=1 out=0 ref=0b1011 act=0b1111
# UVM_INFO scoreboard.sv(41) @ 2410: uvm_test_top.e0.sb0 [SCBD] in=1 out=0 ref=0b1011 act=0b1111
# UVM_INFO scoreboard.sv(41) @ 2430: uvm_test_top.e0.sb0 [SCBD] in=1 out=0 ref=0b1011 act=0b1111
# UVM_INFO scoreboard.sv(41) @ 2450: uvm_test_top.e0.sb0 [SCBD] in=1 out=0 ref=0b1011 act=0b1111
# UVM_INFO scoreboard.sv(41) @ 2470: uvm_test_top.e0.sb0 [SCBD] in=1 out=0 ref=0b1011 act=0b1111
# UVM_INFO scoreboard.sv(41) @ 2490: uvm_test_top.e0.sb0 [SCBD] in=0 out=0 ref=0b1011 act=0b1110
# UVM_INFO scoreboard.sv(41) @ 2510: uvm_test_top.e0.sb0 [SCBD] in=1 out=0 ref=0b1011 act=0b1101
# UVM_INFO scoreboard.sv(41) @ 2530: uvm_test_top.e0.sb0 [SCBD] in=1 out=0 ref=0b1011 act=0b1011
# UVM_INFO scoreboard.sv(59) @ 2530: uvm_test_top.e0.sb0 [SCBD] Pattern found to match, next out should be 1
# UVM_INFO scoreboard.sv(41) @ 2550: uvm_test_top.e0.sb0 [SCBD] in=1 out=0 ref=0b1011 act=0b111
# UVM_ERROR scoreboard.sv(48) @ 2550: uvm_test_top.e0.sb0 [SCBD] ERROR ! out=0 exp=1
# UVM_INFO scoreboard.sv(41) @ 2570: uvm_test_top.e0.sb0 [SCBD] in=1 out=0 ref=0b1011 act=0b1111
# UVM_INFO scoreboard.sv(41) @ 2590: uvm_test_top.e0.sb0 [SCBD] in=1 out=0 ref=0b1011 act=0b1111
